%YAML 1.1
%TAG !u! tag:unity3d.com,2011:
--- !u!74 &7400000
AnimationClip:
  m_ObjectHideFlags: 0
  m_CorrespondingSourceObject: {fileID: 0}
  m_PrefabInstance: {fileID: 0}
  m_PrefabAsset: {fileID: 0}
  m_Name: Chest
  serializedVersion: 6
  m_Legacy: 0
  m_Compressed: 0
  m_UseHighQualityCurve: 1
  m_RotationCurves: []
  m_CompressedRotationCurves: []
  m_EulerCurves: []
  m_PositionCurves: []
  m_ScaleCurves: []
  m_FloatCurves:
  - curve:
      serializedVersion: 2
      m_Curve:
      - serializedVersion: 3
        time: 0
        value: 0
        inSlope: Infinity
        outSlope: Infinity
        tangentMode: 103
        weightedMode: 0
        inWeight: 0
        outWeight: 0
      - serializedVersion: 3
        time: 0.98333335
        value: 1
        inSlope: Infinity
        outSlope: Infinity
        tangentMode: 103
        weightedMode: 0
        inWeight: 0
        outWeight: 0
      m_PreInfinity: 2
      m_PostInfinity: 2
      m_RotationOrder: 4
    attribute: m_Enabled
    path: 
    classID: 114
    script: {fileID: 11500000, guid: 6b8178becf300844ea4c599d53cb995d, type: 3}
  m_PPtrCurves:
  - curve:
    - time: 0
      value: {fileID: -8129547104552166849, guid: 1685ff528d5846041ab0a8a01abb369b, type: 3}
    - time: 0.033333335
      value: {fileID: -1894564470018918674, guid: 1685ff528d5846041ab0a8a01abb369b, type: 3}
    - time: 0.06666667
      value: {fileID: -1429242384532422836, guid: 1685ff528d5846041ab0a8a01abb369b, type: 3}
    - time: 0.1
      value: {fileID: -5448664829686380042, guid: 1685ff528d5846041ab0a8a01abb369b, type: 3}
    - time: 0.13333334
      value: {fileID: -3747831703023138257, guid: 1685ff528d5846041ab0a8a01abb369b, type: 3}
    - time: 0.16666667
      value: {fileID: 5723643682522599216, guid: 1685ff528d5846041ab0a8a01abb369b, type: 3}
    - time: 1.6666666
      value: {fileID: 5723643682522599216, guid: 1685ff528d5846041ab0a8a01abb369b, type: 3}
    - time: 1.75
      value: {fileID: -3747831703023138257, guid: 1685ff528d5846041ab0a8a01abb369b, type: 3}
    - time: 1.8333334
      value: {fileID: -5448664829686380042, guid: 1685ff528d5846041ab0a8a01abb369b, type: 3}
    - time: 1.9166666
      value: {fileID: -1429242384532422836, guid: 1685ff528d5846041ab0a8a01abb369b, type: 3}
    - time: 2
      value: {fileID: -1894564470018918674, guid: 1685ff528d5846041ab0a8a01abb369b, type: 3}
    - time: 2.0833333
      value: {fileID: -8129547104552166849, guid: 1685ff528d5846041ab0a8a01abb369b, type: 3}
    attribute: m_Sprite
    path: 
    classID: 212
    script: {fileID: 0}
  m_SampleRate: 60
  m_WrapMode: 0
  m_Bounds:
    m_Center: {x: 0, y: 0, z: 0}
    m_Extent: {x: 0, y: 0, z: 0}
  m_ClipBindingConstant:
    genericBindings:
    - serializedVersion: 2
      path: 0
      attribute: 3305885265
      script: {fileID: 11500000, guid: 6b8178becf300844ea4c599d53cb995d, type: 3}
      typeID: 114
      customType: 24
      isPPtrCurve: 0
    - serializedVersion: 2
      path: 0
      attribute: 0
      script: {fileID: 0}
      typeID: 212
      customType: 23
      isPPtrCurve: 1
    pptrCurveMapping:
    - {fileID: -8129547104552166849, guid: 1685ff528d5846041ab0a8a01abb369b, type: 3}
    - {fileID: -1894564470018918674, guid: 1685ff528d5846041ab0a8a01abb369b, type: 3}
    - {fileID: -1429242384532422836, guid: 1685ff528d5846041ab0a8a01abb369b, type: 3}
    - {fileID: -5448664829686380042, guid: 1685ff528d5846041ab0a8a01abb369b, type: 3}
    - {fileID: -3747831703023138257, guid: 1685ff528d5846041ab0a8a01abb369b, type: 3}
    - {fileID: 5723643682522599216, guid: 1685ff528d5846041ab0a8a01abb369b, type: 3}
    - {fileID: 5723643682522599216, guid: 1685ff528d5846041ab0a8a01abb369b, type: 3}
    - {fileID: -3747831703023138257, guid: 1685ff528d5846041ab0a8a01abb369b, type: 3}
    - {fileID: -5448664829686380042, guid: 1685ff528d5846041ab0a8a01abb369b, type: 3}
    - {fileID: -1429242384532422836, guid: 1685ff528d5846041ab0a8a01abb369b, type: 3}
    - {fileID: -1894564470018918674, guid: 1685ff528d5846041ab0a8a01abb369b, type: 3}
    - {fileID: -8129547104552166849, guid: 1685ff528d5846041ab0a8a01abb369b, type: 3}
  m_AnimationClipSettings:
    serializedVersion: 2
    m_AdditiveReferencePoseClip: {fileID: 0}
    m_AdditiveReferencePoseTime: 0
    m_StartTime: 0
    m_StopTime: 2.1
    m_OrientationOffsetY: 0
    m_Level: 0
    m_CycleOffset: 0
    m_HasAdditiveReferencePose: 0
    m_LoopTime: 0
    m_LoopBlend: 0
    m_LoopBlendOrientation: 0
    m_LoopBlendPositionY: 0
    m_LoopBlendPositionXZ: 0
    m_KeepOriginalOrientation: 0
    m_KeepOriginalPositionY: 1
    m_KeepOriginalPositionXZ: 0
    m_HeightFromFeet: 0
    m_Mirror: 0
  m_EditorCurves:
  - curve:
      serializedVersion: 2
      m_Curve:
      - serializedVersion: 3
        time: 0
        value: 0
        inSlope: Infinity
        outSlope: Infinity
        tangentMode: 103
        weightedMode: 0
        inWeight: 0
        outWeight: 0
      - serializedVersion: 3
        time: 0.98333335
        value: 1
        inSlope: Infinity
        outSlope: Infinity
        tangentMode: 103
        weightedMode: 0
        inWeight: 0
        outWeight: 0
      m_PreInfinity: 2
      m_PostInfinity: 2
      m_RotationOrder: 4
    attribute: m_Enabled
    path: 
    classID: 114
    script: {fileID: 11500000, guid: 6b8178becf300844ea4c599d53cb995d, type: 3}
  m_EulerEditorCurves: []
  m_HasGenericRootTransform: 0
  m_HasMotionFloatCurves: 0
  m_Events: []
