%YAML 1.1
%TAG !u! tag:unity3d.com,2011:
--- !u!74 &7400000
AnimationClip:
  m_ObjectHideFlags: 0
  m_CorrespondingSourceObject: {fileID: 0}
  m_PrefabInstance: {fileID: 0}
  m_PrefabAsset: {fileID: 0}
  m_Name: Coin
  serializedVersion: 6
  m_Legacy: 0
  m_Compressed: 0
  m_UseHighQualityCurve: 1
  m_RotationCurves: []
  m_CompressedRotationCurves: []
  m_EulerCurves: []
  m_PositionCurves: []
  m_ScaleCurves: []
  m_FloatCurves: []
  m_PPtrCurves:
  - curve:
    - time: 0
      value: {fileID: 3410510333891505588, guid: 27fbd349247c8dc46a3112ada3a53fc7, type: 3}
    - time: 0.06666667
      value: {fileID: 8421428651769419504, guid: 27fbd349247c8dc46a3112ada3a53fc7, type: 3}
    - time: 0.13333334
      value: {fileID: -4109611351399205872, guid: 27fbd349247c8dc46a3112ada3a53fc7, type: 3}
    - time: 0.21666667
      value: {fileID: -4624790700724549283, guid: 27fbd349247c8dc46a3112ada3a53fc7, type: 3}
    - time: 0.26666668
      value: {fileID: 3384858180881554158, guid: 27fbd349247c8dc46a3112ada3a53fc7, type: 3}
    - time: 0.33333334
      value: {fileID: -4507471592298414074, guid: 27fbd349247c8dc46a3112ada3a53fc7, type: 3}
    - time: 0.4
      value: {fileID: 8066139869482952202, guid: 27fbd349247c8dc46a3112ada3a53fc7, type: 3}
    - time: 0.46666667
      value: {fileID: 1192743071421761174, guid: 27fbd349247c8dc46a3112ada3a53fc7, type: 3}
    - time: 0.55
      value: {fileID: -6728358753014161771, guid: 27fbd349247c8dc46a3112ada3a53fc7, type: 3}
    - time: 0.6166667
      value: {fileID: 6212625342264718755, guid: 27fbd349247c8dc46a3112ada3a53fc7, type: 3}
    - time: 0.68333334
      value: {fileID: -8120526501933288537, guid: 27fbd349247c8dc46a3112ada3a53fc7, type: 3}
    - time: 0.75
      value: {fileID: -4691582053152450007, guid: 27fbd349247c8dc46a3112ada3a53fc7, type: 3}
    - time: 0.8
      value: {fileID: -5810781095400407938, guid: 27fbd349247c8dc46a3112ada3a53fc7, type: 3}
    - time: 0.8833333
      value: {fileID: 3417908463200604628, guid: 27fbd349247c8dc46a3112ada3a53fc7, type: 3}
    - time: 0.95
      value: {fileID: 6893842361726985569, guid: 27fbd349247c8dc46a3112ada3a53fc7, type: 3}
    - time: 1.0166667
      value: {fileID: -5043840403749138782, guid: 27fbd349247c8dc46a3112ada3a53fc7, type: 3}
    attribute: m_Sprite
    path: 
    classID: 212
    script: {fileID: 0}
  m_SampleRate: 60
  m_WrapMode: 0
  m_Bounds:
    m_Center: {x: 0, y: 0, z: 0}
    m_Extent: {x: 0, y: 0, z: 0}
  m_ClipBindingConstant:
    genericBindings:
    - serializedVersion: 2
      path: 0
      attribute: 0
      script: {fileID: 0}
      typeID: 212
      customType: 23
      isPPtrCurve: 1
    pptrCurveMapping:
    - {fileID: 3410510333891505588, guid: 27fbd349247c8dc46a3112ada3a53fc7, type: 3}
    - {fileID: 8421428651769419504, guid: 27fbd349247c8dc46a3112ada3a53fc7, type: 3}
    - {fileID: -4109611351399205872, guid: 27fbd349247c8dc46a3112ada3a53fc7, type: 3}
    - {fileID: -4624790700724549283, guid: 27fbd349247c8dc46a3112ada3a53fc7, type: 3}
    - {fileID: 3384858180881554158, guid: 27fbd349247c8dc46a3112ada3a53fc7, type: 3}
    - {fileID: -4507471592298414074, guid: 27fbd349247c8dc46a3112ada3a53fc7, type: 3}
    - {fileID: 8066139869482952202, guid: 27fbd349247c8dc46a3112ada3a53fc7, type: 3}
    - {fileID: 1192743071421761174, guid: 27fbd349247c8dc46a3112ada3a53fc7, type: 3}
    - {fileID: -6728358753014161771, guid: 27fbd349247c8dc46a3112ada3a53fc7, type: 3}
    - {fileID: 6212625342264718755, guid: 27fbd349247c8dc46a3112ada3a53fc7, type: 3}
    - {fileID: -8120526501933288537, guid: 27fbd349247c8dc46a3112ada3a53fc7, type: 3}
    - {fileID: -4691582053152450007, guid: 27fbd349247c8dc46a3112ada3a53fc7, type: 3}
    - {fileID: -5810781095400407938, guid: 27fbd349247c8dc46a3112ada3a53fc7, type: 3}
    - {fileID: 3417908463200604628, guid: 27fbd349247c8dc46a3112ada3a53fc7, type: 3}
    - {fileID: 6893842361726985569, guid: 27fbd349247c8dc46a3112ada3a53fc7, type: 3}
    - {fileID: -5043840403749138782, guid: 27fbd349247c8dc46a3112ada3a53fc7, type: 3}
  m_AnimationClipSettings:
    serializedVersion: 2
    m_AdditiveReferencePoseClip: {fileID: 0}
    m_AdditiveReferencePoseTime: 0
    m_StartTime: 0
    m_StopTime: 1.0333333
    m_OrientationOffsetY: 0
    m_Level: 0
    m_CycleOffset: 0
    m_HasAdditiveReferencePose: 0
    m_LoopTime: 1
    m_LoopBlend: 0
    m_LoopBlendOrientation: 0
    m_LoopBlendPositionY: 0
    m_LoopBlendPositionXZ: 0
    m_KeepOriginalOrientation: 0
    m_KeepOriginalPositionY: 1
    m_KeepOriginalPositionXZ: 0
    m_HeightFromFeet: 0
    m_Mirror: 0
  m_EditorCurves: []
  m_EulerEditorCurves: []
  m_HasGenericRootTransform: 0
  m_HasMotionFloatCurves: 0
  m_Events: []
