%YAML 1.1
%TAG !u! tag:unity3d.com,2011:
--- !u!74 &7400000
AnimationClip:
  m_ObjectHideFlags: 0
  m_CorrespondingSourceObject: {fileID: 0}
  m_PrefabInstance: {fileID: 0}
  m_PrefabAsset: {fileID: 0}
  m_Name: idle02
  serializedVersion: 6
  m_Legacy: 0
  m_Compressed: 0
  m_UseHighQualityCurve: 1
  m_RotationCurves: []
  m_CompressedRotationCurves: []
  m_EulerCurves: []
  m_PositionCurves: []
  m_ScaleCurves: []
  m_FloatCurves: []
  m_PPtrCurves:
  - curve:
    - time: 0
      value: {fileID: 2976041059057689810, guid: 7271c00af7c561f4da251fcfe62912d4, type: 3}
    - time: 0.033333335
      value: {fileID: 356572232501902205, guid: 7271c00af7c561f4da251fcfe62912d4, type: 3}
    - time: 0.06666667
      value: {fileID: 7680883545352735267, guid: 7271c00af7c561f4da251fcfe62912d4, type: 3}
    - time: 0.1
      value: {fileID: -6698053808211914146, guid: 7271c00af7c561f4da251fcfe62912d4, type: 3}
    - time: 0.13333334
      value: {fileID: -3743597005656397870, guid: 7271c00af7c561f4da251fcfe62912d4, type: 3}
    - time: 0.15
      value: {fileID: -673261699922730533, guid: 7271c00af7c561f4da251fcfe62912d4, type: 3}
    - time: 0.16666667
      value: {fileID: -2265170066366850464, guid: 7271c00af7c561f4da251fcfe62912d4, type: 3}
    - time: 0.2
      value: {fileID: 1152089319369271912, guid: 7271c00af7c561f4da251fcfe62912d4, type: 3}
    - time: 0.23333333
      value: {fileID: 5303989318115558437, guid: 7271c00af7c561f4da251fcfe62912d4, type: 3}
    - time: 0.25
      value: {fileID: 965119642373957290, guid: 7271c00af7c561f4da251fcfe62912d4, type: 3}
    attribute: m_Sprite
    path: 
    classID: 212
    script: {fileID: 0}
  m_SampleRate: 60
  m_WrapMode: 0
  m_Bounds:
    m_Center: {x: 0, y: 0, z: 0}
    m_Extent: {x: 0, y: 0, z: 0}
  m_ClipBindingConstant:
    genericBindings:
    - serializedVersion: 2
      path: 0
      attribute: 0
      script: {fileID: 0}
      typeID: 212
      customType: 23
      isPPtrCurve: 1
    pptrCurveMapping:
    - {fileID: 2976041059057689810, guid: 7271c00af7c561f4da251fcfe62912d4, type: 3}
    - {fileID: 356572232501902205, guid: 7271c00af7c561f4da251fcfe62912d4, type: 3}
    - {fileID: 7680883545352735267, guid: 7271c00af7c561f4da251fcfe62912d4, type: 3}
    - {fileID: -6698053808211914146, guid: 7271c00af7c561f4da251fcfe62912d4, type: 3}
    - {fileID: -3743597005656397870, guid: 7271c00af7c561f4da251fcfe62912d4, type: 3}
    - {fileID: -673261699922730533, guid: 7271c00af7c561f4da251fcfe62912d4, type: 3}
    - {fileID: -2265170066366850464, guid: 7271c00af7c561f4da251fcfe62912d4, type: 3}
    - {fileID: 1152089319369271912, guid: 7271c00af7c561f4da251fcfe62912d4, type: 3}
    - {fileID: 5303989318115558437, guid: 7271c00af7c561f4da251fcfe62912d4, type: 3}
    - {fileID: 965119642373957290, guid: 7271c00af7c561f4da251fcfe62912d4, type: 3}
  m_AnimationClipSettings:
    serializedVersion: 2
    m_AdditiveReferencePoseClip: {fileID: 0}
    m_AdditiveReferencePoseTime: 0
    m_StartTime: 0
    m_StopTime: 0.26666668
    m_OrientationOffsetY: 0
    m_Level: 0
    m_CycleOffset: 0
    m_HasAdditiveReferencePose: 0
    m_LoopTime: 1
    m_LoopBlend: 0
    m_LoopBlendOrientation: 0
    m_LoopBlendPositionY: 0
    m_LoopBlendPositionXZ: 0
    m_KeepOriginalOrientation: 0
    m_KeepOriginalPositionY: 1
    m_KeepOriginalPositionXZ: 0
    m_HeightFromFeet: 0
    m_Mirror: 0
  m_EditorCurves: []
  m_EulerEditorCurves: []
  m_HasGenericRootTransform: 0
  m_HasMotionFloatCurves: 0
  m_Events: []
